%YAML 1.1
%TAG !u! tag:unity3d.com,2011:
--- !u!1045 &1
EditorBuildSettings:
  m_ObjectHideFlags: 0
  serializedVersion: 2
  m_Scenes:
  - enabled: 1
    path: Assets/Scenes/Main Menu.unity
    guid: 56bd27bb362232049bb91dc16063cf1f
  - enabled: 1
    path: Assets/Scenes/Level 1.unity
    guid: 2cda990e2423bbf4892e6590ba056729
  - enabled: 1
    path: Assets/Scenes/Level2.unity
    guid: 925c34906e5ea64449303653259bd70a
  - enabled: 1
    path: Assets/Scenes/Level3.unity
    guid: 37adc9dd89bc8564a98e6ee5f2934ede
  - enabled: 1
    path: Assets/Scenes/Credits.unity
    guid: c87efed94c4ff914f957d3c7ef027819
  m_configObjects: {}
